…
prior_mental_illness
did the shooter show evidence of mental illness prior to the incident?

Explore the data

Specific questions

Generate a data frame that summarizes the number of mass shootings per year.

mass_shootings %>% 
  group_by(year) %>% 
  summarise(count = n()) %>% 
  arrange(count)

## # A tibble: 37 × 2
##     year count
##    <dbl> <int>
##  1  1982     1
##  2  1986     1
##  3  1987     1
##  4  1988     1
##  5  1990     1
##  6  1994     1
##  7  1995     1
##  8  1996     1
##  9  2000     1
## 10  2001     1
## # ℹ 27 more rows
…
