…
# P4 had the highest donations for each year

I would like you to write code that generates the following table.

## `summarise()` has grouped output by "party_id". You can override using the
## `.groups` argument.
## `summarise()` has grouped output by "party_id". You can override using the
## `.groups` argument.

## # A tibble: 28 × 6
## # Groups:   party_id [10]
##    party_id year_str total_year_donations all_party_donations    prop name      
##    <chr>    <chr>                   <dbl>               <dbl>   <dbl> <chr>     
##  1 p1       2020                  105000            69941125. 0.00150 Alliance  
##  2 p1       2021                   42500            29834986. 0.00142 Alliance  
##  3 p1       2022                  180600            27848092. 0.00649 Alliance  
##  4 p1034    2021                   53559.           29834986. 0.00180 Alba Party
##  5 p1034    2022                   50000            27848092. 0.00180 Alba Party
##  6 p15      2020                13539803.           69941125. 0.194   Labour    
##  7 p15      2021                 9493978.           29834986. 0.318   Labour    
##  8 p15      2022                 9460879.           27848092. 0.340   Labour    
##  9 p17      2020                12717295.           69941125. 0.182   Liberal D…
## 10 p17      2021                  700398.           29834986. 0.0235  Liberal D…
## # ℹ 18 more rows
…
